{
    "server_response": "1",
    "outcome": "success",
    "songs_list": {
        "current_page": 1,
        "data": [
            {
                "id": 454,
                "title": "song title in json file",
                "slug": "song-title-in-json-file",
                "made": "2024-09-11 14:28:43",
                "updated": "2024-09-11 14:28:43"
            },
            {
                "id": 453,
                "title": "take a long ride home",
                "slug": "take-a-long-ride-home",
                "made": "2024-09-11 14:27:01",
                "updated": "2024-09-11 14:27:01"
            },
            {
                "id": 452,
                "title": "take a long ride",
                "slug": "take-a-long-ride",
                "made": "2024-09-11 14:24:29",
                "updated": "2024-09-11 14:24:29"
            },
            {
                "id": 451,
                "title": "CLONE AND MOVE 2",
                "slug": "CLONE-AND-MOVE-2",
                "made": "2024-09-11 10:56:16",
                "updated": "2024-09-11 10:56:16"
            },
            {
                "id": 441,
                "title": "sections working on change bars?",
                "slug": "sections-working-on-change-bars?",
                "made": "2024-07-23 15:52:08",
                "updated": "2024-07-23 15:52:08"
            },
            {
                "id": 440,
                "title": "on the radio",
                "slug": "on-the-radio",
                "made": "2024-07-23 12:14:15",
                "updated": "2024-07-23 12:14:15"
            },
            {
                "id": 438,
                "title": "bake it",
                "slug": "bake-it",
                "made": "2024-07-23 12:11:02",
                "updated": "2024-07-23 12:11:02"
            },
            {
                "id": 437,
                "title": "IN AN ALBUM",
                "slug": "IN-AN-ALBUM",
                "made": "2024-07-23 12:09:03",
                "updated": "2024-07-23 12:09:03"
            },
            {
                "id": 436,
                "title": "SECTION CLONE BREAKS MOVE",
                "slug": "SECTION-CLONE-BREAKS-MOVE",
                "made": "2024-07-23 12:08:15",
                "updated": "2024-07-23 12:08:15"
            },
            {
                "id": 435,
                "title": "wave",
                "slug": "wave",
                "made": "2024-07-23 12:07:37",
                "updated": "2024-07-23 12:07:37"
            },
            {
                "id": 434,
                "title": "long",
                "slug": "long",
                "made": "2024-07-23 12:07:05",
                "updated": "2024-07-23 12:07:05"
            },
            {
                "id": 431,
                "title": "song-test-dummy 13",
                "slug": "song-test-dummy-8",
                "made": "2024-07-05 10:23:41",
                "updated": "2024-07-05 11:58:37"
            },
            {
                "id": 432,
                "title": "CLONE AND MOVE",
                "slug": "CLONE-AND-MOVE",
                "made": "2024-07-05 10:23:41",
                "updated": "2024-07-05 11:58:37"
            },
            {
                "id": 433,
                "title": "BUG_CHANGING_OTHER_BAR_TEXTS",
                "slug": "BUG_CHANGING_OTHER_BAR_TEXTS",
                "made": "2024-07-04 12:34:33",
                "updated": "2024-07-04 14:49:35"
            },
            {
                "id": 429,
                "title": "Take My Eyes Off You",
                "slug": "take-my-eyes-off-you",
                "made": "2023-10-02",
                "updated": "2023-10-03"
            },
            {
                "id": 428,
                "title": "Uncanny",
                "slug": "uncanny",
                "made": "2023-09-30 20:00:10",
                "updated": "2023-09-30 20:00:10"
            },
            {
                "id": 430,
                "title": "Killing Time",
                "slug": "Killing-Time",
                "made": "2023-08-04 11:50:44",
                "updated": "2023-08-04 11:50:44"
            },
            {
                "id": 422,
                "title": "Psycosomatica",
                "slug": "psycosomatica",
                "made": "2021-01-18",
                "updated": "2021-01-18"
            },
            {
                "id": 423,
                "title": "Effervescence",
                "slug": "effervescence",
                "made": "2021-01-18",
                "updated": "2021-01-18"
            },
            {
                "id": 424,
                "title": "Recurring Dreams",
                "slug": "recurring-dreams",
                "made": "2021-01-18",
                "updated": "2021-01-18"
            },
            {
                "id": 408,
                "title": "When We Were",
                "slug": "when-we-were",
                "made": "2020-10-31 18:25:31",
                "updated": "2020-11-26 11:54:07"
            },
            {
                "id": 409,
                "title": "In The Night",
                "slug": "in-the-night",
                "made": "2020-10-31 18:26:11",
                "updated": "2020-12-20 13:35:04"
            },
            {
                "id": 407,
                "title": "Maria",
                "slug": "maria",
                "made": "2020-10-11 17:41:00",
                "updated": "2020-12-30 20:24:21"
            },
            {
                "id": 404,
                "title": "Feathers",
                "slug": "feathers",
                "made": "2020-09-13 10:23:41",
                "updated": "2020-10-17 11:58:37"
            }
        ],
        "first_page_url": "http://songs-api-laravel/api/songs?page=1",
        "from": 1,
        "last_page": 14,
        "last_page_url": "http://songs-api-laravel/api/songs?page=14",
        "links": [
            {
                "url": null,
                "label": "&laquo; Previous",
                "active": false
            },
            {
                "url": "http://songs-api-laravel/api/songs?page=1",
                "label": "1",
                "active": true
            },
            {
                "url": "http://songs-api-laravel/api/songs?page=2",
                "label": "2",
                "active": false
            },
            {
                "url": "http://songs-api-laravel/api/songs?page=3",
                "label": "3",
                "active": false
            },
            {
                "url": "http://songs-api-laravel/api/songs?page=4",
                "label": "4",
                "active": false
            },
            {
                "url": "http://songs-api-laravel/api/songs?page=5",
                "label": "5",
                "active": false
            },
            {
                "url": "http://songs-api-laravel/api/songs?page=6",
                "label": "6",
                "active": false
            },
            {
                "url": "http://songs-api-laravel/api/songs?page=7",
                "label": "7",
                "active": false
            },
            {
                "url": "http://songs-api-laravel/api/songs?page=8",
                "label": "8",
                "active": false
            },
            {
                "url": "http://songs-api-laravel/api/songs?page=9",
                "label": "9",
                "active": false
            },
            {
                "url": "http://songs-api-laravel/api/songs?page=10",
                "label": "10",
                "active": false
            },
            {
                "url": null,
                "label": "...",
                "active": false
            },
            {
                "url": "http://songs-api-laravel/api/songs?page=13",
                "label": "13",
                "active": false
            },
            {
                "url": "http://songs-api-laravel/api/songs?page=14",
                "label": "14",
                "active": false
            },
            {
                "url": "http://songs-api-laravel/api/songs?page=2",
                "label": "Next &raquo;",
                "active": false
            }
        ],
        "next_page_url": "http://songs-api-laravel/api/songs?page=2",
        "path": "http://songs-api-laravel/api/songs",
        "per_page": 24,
        "prev_page_url": null,
        "to": 24,
        "total": 322
    }
}